{
  "files": {
    "main.css": "./static/css/main.6e1cdef1.chunk.css",
    "main.js": "./static/js/main.0c5b3aac.chunk.js",
    "main.js.map": "./static/js/main.0c5b3aac.chunk.js.map",
    "runtime~main.js": "./static/js/runtime~main.d653cc00.js",
    "runtime~main.js.map": "./static/js/runtime~main.d653cc00.js.map",
    "static/js/2.9883c242.chunk.js": "./static/js/2.9883c242.chunk.js",
    "static/js/2.9883c242.chunk.js.map": "./static/js/2.9883c242.chunk.js.map",
    "index.html": "./index.html",
    "precache-manifest.83633ea601d76840afe9c3f8e3f50456.js": "./precache-manifest.83633ea601d76840afe9c3f8e3f50456.js",
    "service-worker.js": "./service-worker.js",
    "static/css/main.6e1cdef1.chunk.css.map": "./static/css/main.6e1cdef1.chunk.css.map"
  }
}